{
  "name": "tbl_pymt_collectin",
  "plural": "collections",
  "base": "PersistedModel",
  "idInjection": true,
  "options": {
    "validateUpsert": true
  },
  "properties": {
    "pymtid": {
      "type": "number",
      "id": true
    },
    "pymt_dt": {
      "type": "date"
    },
    "billid": {
      "type": "string"
    },
    "suserid": {
      "type": "number"
    },
    "status": {
      "type": "string"
    },
    "last_updated_dt": {
      "type": "date"
    },
    "last_updated_by": {
      "type": "string"
    }
  },
  "validations": [],
  "relations": {
  "bills": {
      "type": "belongsTo",
      "model": "tbl_sale_bill",
      "foreignKey": "billid"
    }
  },
  "acls": [],
  "methods": {}
}
