{
  "name": "tbl_prod_setting",
  "plural": "productsettings",
  "base": "PersistedModel",
  "idInjection": false,
  "options": {
    "validateUpsert": true
  },
  "properties": {
    "prdsetngid": {
      "type": "number",
      "id": "true"
    },
    "prodid": {
      "type": "string"
    },
    "duserid": {
      "type": "number"
    },
    "refkey": {
      "type": "string"
    },
    "refvalue": {
      "type": "string"
    },
    "muserid": {
      "type": "number"
    },
    "status": {
      "type": "string"
    },
    "updateddt": {
      "type": "date"
    }
  },
  "validations": [],
  "relations": {},
  "acls": [],
  "methods": {}
}
