{
  "name": "tbl_user_dealer",
  "plural": "dealer",
  "base": "PersistedModel",
  "idInjection": false,
  "options": {
    "validateUpsert": true
  },
  "properties": {
    "usrdlrid": {
      "type": "number"
    },
    "muserid": {
      "type": "number"
    },
    "duserid": {
      "type": "number",
      "id": true
    },
    "updateddt": {
      "type": "date"
    },
    "dstatus": {
      "type": "string",
      "default":"Active"
    }
  },
  "validations": [],
  "relations": {
    "products": {
      "type": "hasMany",
      "model": "tbl_user_prod",
      "foreignKey": "userid"
    },
    "M": {
      "type": "belongsTo",
      "model": "tbl_user",
      "foreignKey": "muserid"
    },
    "D": {
      "type": "belongsTo",
      "model": "tbl_user",
      "foreignKey": "duserid"
    },
    "stocks": {
        "type": "hasMany",
        "model": "tbl_stock_entry",
        "foreignKey": "userid"
      }
  },
  "acls": [],
  "methods": {}
}
