{
  "name": "tbl_slno_gen",
  "plural": "gens",
  "base": "PersistedModel",
  "idInjection": true,
  "options": {
    "validateUpsert": true
  },
  "properties": {
    "slno_id": {
      "type": "number",
      "id": true
    },
    "duserid": {
      "type": "number"
    },
    "ref_key": {
      "type": "string"
    },
    "key_desc": {
      "type": "string"
    },
    "prefix_key": {
      "type": "string"
    },
    "prefix_cncat": {
      "type": "string"
    },
    "suffix_key": {
      "type": "string"
    },
    "suffix_cncat": {
      "type": "string"
    },
    "curr_seqno": {
      "type": "number"
    },
    "last_seqno": {
      "type": "number"
    },
    "status": {
      "type": "string"
    },
    "last_updated_dt": {
      "type": "date"
    },
    "last_updated_by": {
      "type": "string"
    }
  },
  "validations": [],
  "relations": {},
  "acls": [],
  "methods": {}
}
