{
    "db": {
        "name": "db",
        "connector": "memory"
    },
    "mysqldb": {
        "host": "192.168.1.20",
        "port": 3306,
        "database": "freshorder",
        "password": "gnts2016",
        "name": "mysqldb",
        "user": "gntsdev",
        "connector": "mysql",
        "timezone": "IST",
        "debug": false
    },
    "filestorage": {
        "name": "filestorage",
        "connector": "loopback-component-storage",
        "provider": "filesystem",
        "root": "C:\\Users\\Nithya\\git\\freshorder-api\\server\\storage",
        "maxFileSize": "52428800"
    }
}