[{ "type": "Admin Work", "sno": 1 }, { "type": "Camp Work", "sno": 2 }, { "type": "Meeting Cycle", "sno": 3 },
    { "type": "Drs Survey", "sno": 4 }, { "type": "Field Work", "sno": 5 }, { "type": "Holiday", "sno": 6 },
    { "type": "Induction Work", "sno": 7 }, { "type": "Leave", "sno": 8 }, { "type": "Meeting", "sno": 9 },
    { "type": "No Field Work", "sno": 10 }
]